,date,city,rent,product
0,2021-01-01,Yalova,9,1361
1,2021-01-02,Konya,5,1394
2,2021-01-03,Sivas,9,1491
3,2021-01-04,Aydın,6,1707
4,2021-01-05,Kütahya,9,1958
5,2021-01-06,Düzce,3,1564
6,2021-01-07,Giresun,13,1590
7,2021-01-08,Kütahya,3,1989
8,2021-01-09,Hakkari,15,1122
9,2021-01-10,Gümüşhane,14,1002
10,2021-01-11,İzmir,9,1910
11,2021-01-12,Afyon,3,1843
12,2021-01-13,Kütahya,9,1955
13,2021-01-14,Aksaray,4,1458
14,2021-01-15,Bartın,15,1056
15,2021-01-16,Bitlis,4,1772
16,2021-01-17,Eskişehir,17,1327
17,2021-01-18,Gümüşhane,12,1297
18,2021-01-19,Bayburt,5,1662
19,2021-01-20,Kırşehir,15,1853
20,2021-01-21,Şırnak,4,1771
21,2021-01-22,Batman,3,1283
22,2021-01-23,Çanakkale,17,1949
23,2021-01-24,Burdur,7,1349
24,2021-01-25,Muş,14,1633
25,2021-01-26,Kayseri,9,1116
26,2021-01-27,Çorum,16,1728
27,2021-01-28,Muğla,13,1019
28,2021-01-29,Kars,9,1723
29,2021-01-30,Kahramanmaraş,14,1304
30,2021-01-31,Ankara,2,1339
31,2021-02-01,Batman,8,1816
32,2021-02-02,Bayburt,10,1169
33,2021-02-03,Kırıkkale,14,1336
34,2021-02-04,Bingöl,7,1788
35,2021-02-05,Bolu,11,1568
36,2021-02-06,Erzurum,2,1461
37,2021-02-07,Kütahya,17,1677
38,2021-02-08,Adıyaman,5,1350
39,2021-02-09,Çankırı,7,1830
40,2021-02-10,Niğde,12,1376
41,2021-02-11,Uşak,15,1540
42,2021-02-12,Yozgat,8,1264
43,2021-02-13,Batman,6,1442
44,2021-02-14,Şanlıurfa,4,1871
45,2021-02-15,Iğdır,13,1410
46,2021-02-16,Hatay,16,1019
47,2021-02-17,İzmir,7,1979
48,2021-02-18,Elazığ,2,1432
49,2021-02-19,Gaziantep,8,1600
50,2021-02-20,Ağrı,4,1091
51,2021-02-21,Kırşehir,13,1431
52,2021-02-22,Trabzon,16,1015
53,2021-02-23,Kayseri,3,1430
54,2021-02-24,Mardin,12,1824
55,2021-02-25,Afyon,12,1359
56,2021-02-26,Uşak,13,1737
57,2021-02-27,Edirne,6,1013
58,2021-02-28,Uşak,15,1054
59,2021-03-01,Karabük,14,1010
60,2021-03-02,Kocaeli,11,1922
61,2021-03-03,Zonguldak,3,1501
62,2021-03-04,Bilecik,4,1834
63,2021-03-05,Ardahan,5,1847
64,2021-03-06,Zonguldak,16,1420
65,2021-03-07,Bursa,8,1862
66,2021-03-08,Sivas,9,1670
67,2021-03-09,Aksaray,9,1753
68,2021-03-10,Osmaniye,4,1435
69,2021-03-11,Amasya,4,1234
70,2021-03-12,Tokat,4,1399
71,2021-03-13,İstanbul,15,1070
72,2021-03-14,Erzincan,16,1255
73,2021-03-15,Kırklareli,9,1643
74,2021-03-16,Rize,17,1949
75,2021-03-17,Amasya,14,1005
76,2021-03-18,İzmir,3,1438
77,2021-03-19,Antalya,11,1427
78,2021-03-20,Bartın,9,1250
79,2021-03-21,Kırklareli,6,1502
80,2021-03-22,Bilecik,5,1368
81,2021-03-23,Hatay,4,1449
82,2021-03-24,Samsun,16,1654
83,2021-03-25,Sakarya,1,1264
84,2021-03-26,Yozgat,5,1177
85,2021-03-27,Eskişehir,5,1026
86,2021-03-28,Balıkesir,3,1807
87,2021-03-29,Bolu,6,1863
88,2021-03-30,Adana,15,1148
89,2021-03-31,Muş,10,1667
90,2021-04-01,Bursa,4,1137
91,2021-04-02,Rize,15,1313
92,2021-04-03,Sakarya,2,1011
93,2021-04-04,Bingöl,5,1330
94,2021-04-05,Isparta,11,1478
95,2021-04-06,Aksaray,16,1047
96,2021-04-07,Giresun,12,1626
97,2021-04-08,Ağrı,10,1795
98,2021-04-09,Bilecik,9,1728
99,2021-04-10,Sakarya,1,1165
100,2021-04-11,İzmir,7,1029
101,2021-04-12,Kars,13,1907
102,2021-04-13,Mardin,14,1131
103,2021-04-14,Ankara,12,1113
104,2021-04-15,Trabzon,10,1081
105,2021-04-16,Karaman,5,1119
106,2021-04-17,Yozgat,4,1420
107,2021-04-18,Rize,15,1742
108,2021-04-19,Uşak,9,1034
109,2021-04-20,Sakarya,4,1369
110,2021-04-21,Malatya,15,1102
111,2021-04-22,Şanlıurfa,4,1461
112,2021-04-23,Bartın,3,1887
113,2021-04-24,Amasya,17,1432
114,2021-04-25,Tunceli,2,1244
115,2021-04-26,Samsun,12,1797
116,2021-04-27,Diyarbakır,10,1912
117,2021-04-28,Bingöl,7,1042
118,2021-04-29,Aksaray,8,1729
119,2021-04-30,Amasya,1,1619
120,2021-05-01,Mardin,15,1934
121,2021-05-02,Kırklareli,13,1492
122,2021-05-03,Amasya,13,1770
123,2021-05-04,Niğde,9,1599
124,2021-05-05,Ardahan,14,1525
125,2021-05-06,Siirt,8,1237
126,2021-05-07,Ankara,14,1645
127,2021-05-08,Sakarya,16,1669
128,2021-05-09,Aksaray,7,1154
129,2021-05-10,Mardin,16,1743
130,2021-05-11,Diyarbakır,15,1206
131,2021-05-12,Ordu,16,1501
132,2021-05-13,Diyarbakır,10,1437
133,2021-05-14,Gaziantep,2,1630
134,2021-05-15,Aydın,16,1908
135,2021-05-16,Balıkesir,5,1137
136,2021-05-17,Iğdır,13,1850
137,2021-05-18,Bilecik,17,1828
138,2021-05-19,Kahramanmaraş,2,1220
139,2021-05-20,Van,3,1255
140,2021-05-21,Diyarbakır,12,1895
141,2021-05-22,Giresun,2,1433
142,2021-05-23,Çorum,8,1593
143,2021-05-24,Karaman,9,1987
144,2021-05-25,Karabük,4,1554
145,2021-05-26,Manisa,7,1307
146,2021-05-27,Çanakkale,1,1752
147,2021-05-28,Samsun,12,1231
148,2021-05-29,Nevşehir,16,1609
149,2021-05-30,Nevşehir,10,1167
150,2021-05-31,Nevşehir,11,1751
151,2021-06-01,Denizli,16,1850
152,2021-06-02,Kastamonu,2,1673
153,2021-06-03,Kastamonu,5,1580
154,2021-06-04,Batman,4,1088
155,2021-06-05,Burdur,2,1015
156,2021-06-06,Konya,17,1182
157,2021-06-07,Ordu,14,1926
158,2021-06-08,Aksaray,14,1715
159,2021-06-09,Eskişehir,3,1260
160,2021-06-10,Hatay,10,1142
161,2021-06-11,Gaziantep,15,1290
162,2021-06-12,Zonguldak,3,1416
163,2021-06-13,Sinop,3,1371
164,2021-06-14,Kilis,13,1438
165,2021-06-15,Bursa,15,1890
166,2021-06-16,Aksaray,11,1158
167,2021-06-17,Bursa,6,1151
168,2021-06-18,Hatay,13,1629
169,2021-06-19,Batman,5,1848
170,2021-06-20,Siirt,13,1285
171,2021-06-21,Afyon,4,1236
172,2021-06-22,Iğdır,11,1331
173,2021-06-23,Yalova,2,1075
174,2021-06-24,Adıyaman,11,1064
175,2021-06-25,Mardin,4,1410
176,2021-06-26,Karaman,7,1631
177,2021-06-27,Karaman,4,1404
178,2021-06-28,Ardahan,14,1385
179,2021-06-29,Şırnak,1,1932
180,2021-06-30,Bursa,16,1572
181,2021-07-01,Şanlıurfa,3,1109
182,2021-07-02,Bitlis,13,1768
183,2021-07-03,Kırşehir,2,1942
184,2021-07-04,Sinop,3,1749
185,2021-07-05,Giresun,8,1708
186,2021-07-06,Mardin,5,1000
187,2021-07-07,Kilis,12,1901
188,2021-07-08,Bitlis,1,1901
189,2021-07-09,Bilecik,16,1268
190,2021-07-10,Uşak,8,1921
191,2021-07-11,Zonguldak,10,1012
192,2021-07-12,Ağrı,12,1355
193,2021-07-13,Gaziantep,4,1289
194,2021-07-14,Bartın,7,1895
195,2021-07-15,İzmir,9,1407
196,2021-07-16,Muş,14,1338
197,2021-07-17,Osmaniye,15,1664
198,2021-07-18,Kırşehir,4,1124
199,2021-07-19,Denizli,10,1312
200,2021-07-20,Ardahan,12,1311
201,2021-07-21,Adana,12,1121
202,2021-07-22,Diyarbakır,14,1432
203,2021-07-23,Mardin,8,1506
204,2021-07-24,Adıyaman,8,1744
205,2021-07-25,Karaman,13,1888
206,2021-07-26,Malatya,1,1475
207,2021-07-27,Sakarya,2,1350
208,2021-07-28,Karabük,15,1865
209,2021-07-29,Çorum,14,1353
210,2021-07-30,Erzurum,7,1669
211,2021-07-31,Bingöl,17,1014
212,2021-08-01,Bartın,1,1560
213,2021-08-02,Erzincan,6,1103
214,2021-08-03,Şanlıurfa,13,1124
215,2021-08-04,Eskişehir,3,1305
216,2021-08-05,Isparta,7,1165
217,2021-08-06,Sivas,13,1417
218,2021-08-07,Erzurum,15,1857
219,2021-08-08,Samsun,2,1315
220,2021-08-09,Niğde,6,1899
221,2021-08-10,Aydın,1,1710
222,2021-08-11,Siirt,4,1171
223,2021-08-12,Gümüşhane,13,1245
224,2021-08-13,Bingöl,9,1755
225,2021-08-14,Diyarbakır,10,1488
226,2021-08-15,Diyarbakır,7,1043
227,2021-08-16,Osmaniye,14,1717
228,2021-08-17,Ardahan,9,1517
229,2021-08-18,Trabzon,9,1857
230,2021-08-19,Van,16,1298
231,2021-08-20,Eskişehir,1,1252
232,2021-08-21,Erzincan,13,1446
233,2021-08-22,Muğla,10,1544
234,2021-08-23,Aksaray,8,1109
235,2021-08-24,Şanlıurfa,16,1977
236,2021-08-25,Karaman,1,1101
237,2021-08-26,Kilis,14,1556
238,2021-08-27,Çanakkale,16,1686
239,2021-08-28,Konya,5,1836
240,2021-08-29,Tokat,14,1633
241,2021-08-30,Mardin,4,1311
242,2021-08-31,Erzurum,11,1884
243,2021-09-01,Kahramanmaraş,14,1824
244,2021-09-02,Burdur,5,1576
245,2021-09-03,Uşak,11,1034
246,2021-09-04,Kırklareli,5,1451
247,2021-09-05,Çorum,13,1461
248,2021-09-06,Manisa,15,1241
249,2021-09-07,Bitlis,12,1709
250,2021-09-08,Rize,13,1261
251,2021-09-09,Balıkesir,16,1049
252,2021-09-10,Niğde,1,1135
253,2021-09-11,Samsun,11,1730
254,2021-09-12,Tunceli,13,1778
255,2021-09-13,Sinop,10,1072
256,2021-09-14,İzmir,3,1333
257,2021-09-15,İçel (Mersin),15,1963
258,2021-09-16,Yalova,1,1244
259,2021-09-17,Aydın,12,1652
260,2021-09-18,Gümüşhane,11,1908
261,2021-09-19,Siirt,12,1229
262,2021-09-20,Nevşehir,5,1930
263,2021-09-21,Ardahan,13,1284
264,2021-09-22,Isparta,5,1109
265,2021-09-23,Karaman,9,1128
266,2021-09-24,Karabük,8,1194
267,2021-09-25,Adıyaman,2,1100
268,2021-09-26,Uşak,4,1123
269,2021-09-27,Balıkesir,10,1153
270,2021-09-28,Kırklareli,4,1597
271,2021-09-29,Adıyaman,7,1426
272,2021-09-30,Muğla,8,1010
273,2021-10-01,Van,13,1316
274,2021-10-02,Sinop,2,1293
275,2021-10-03,Erzincan,11,1710
276,2021-10-04,Karaman,9,1155
277,2021-10-05,Bilecik,16,1917
278,2021-10-06,Karabük,11,1145
279,2021-10-07,Elazığ,9,1640
280,2021-10-08,Samsun,6,1453
281,2021-10-09,Kars,6,1896
282,2021-10-10,Samsun,9,1831
283,2021-10-11,Bartın,5,1276
284,2021-10-12,Isparta,13,1496
285,2021-10-13,Mardin,10,1988
286,2021-10-14,Osmaniye,5,1182
287,2021-10-15,Isparta,15,1443
288,2021-10-16,Balıkesir,6,1054
289,2021-10-17,Yalova,9,1338
290,2021-10-18,Sakarya,13,1381
291,2021-10-19,Bartın,9,1904
292,2021-10-20,Rize,5,1404
293,2021-10-21,Samsun,4,1748
294,2021-10-22,Bartın,6,1547
295,2021-10-23,Çanakkale,15,1471
296,2021-10-24,Elazığ,7,1076
297,2021-10-25,Kırşehir,15,1663
298,2021-10-26,Burdur,16,1738
299,2021-10-27,Aksaray,16,1197
300,2021-10-28,Malatya,5,1665
301,2021-10-29,Sinop,3,1179
302,2021-10-30,Aydın,15,1303
303,2021-10-31,Ankara,5,1922
304,2021-11-01,Hakkari,7,1678
305,2021-11-02,Kahramanmaraş,2,1750
306,2021-11-03,Kilis,16,1118
307,2021-11-04,Balıkesir,8,1074
308,2021-11-05,Kars,2,1718
309,2021-11-06,Kastamonu,8,1849
310,2021-11-07,Tunceli,4,1588
311,2021-11-08,Iğdır,1,1402
312,2021-11-09,Kayseri,9,1345
313,2021-11-10,Edirne,9,1225
314,2021-11-11,Ankara,15,1314
315,2021-11-12,Erzincan,6,1321
316,2021-11-13,Karabük,4,1680
317,2021-11-14,Karaman,8,1974
318,2021-11-15,Bayburt,6,1591
319,2021-11-16,Rize,14,1203
320,2021-11-17,Bingöl,9,1743
321,2021-11-18,Tekirdağ,11,1243
322,2021-11-19,Malatya,12,1466
323,2021-11-20,Yalova,2,1321
324,2021-11-21,Kilis,6,1912
325,2021-11-22,Batman,3,1610
326,2021-11-23,Eskişehir,1,1924
327,2021-11-24,Ağrı,8,1322
328,2021-11-25,Osmaniye,4,1529
329,2021-11-26,Batman,1,1184
330,2021-11-27,Adana,12,1023
331,2021-11-28,Tunceli,14,1685
332,2021-11-29,Denizli,7,1368
333,2021-11-30,Afyon,15,1206
334,2021-12-01,Şırnak,15,1104
335,2021-12-02,Sivas,17,1361
336,2021-12-03,Elazığ,17,1742
337,2021-12-04,Kırıkkale,13,1616
338,2021-12-05,Düzce,15,1652
339,2021-12-06,Giresun,15,1853
340,2021-12-07,Artvin,8,1036
341,2021-12-08,Uşak,12,1700
342,2021-12-09,Edirne,17,1894
343,2021-12-10,Adıyaman,10,1566
344,2021-12-11,Kars,1,1226
345,2021-12-12,Kırıkkale,3,1541
346,2021-12-13,Bitlis,11,1265
347,2021-12-14,Ardahan,2,1529
348,2021-12-15,İçel (Mersin),13,1640
349,2021-12-16,Antalya,1,1029
350,2021-12-17,Bursa,13,1354
351,2021-12-18,Giresun,14,1015
352,2021-12-19,Aksaray,4,1581
353,2021-12-20,Adana,3,1442
354,2021-12-21,Şırnak,17,1334
355,2021-12-22,Aksaray,12,1078
356,2021-12-23,Çankırı,5,1259
357,2021-12-24,Çorum,13,1760
358,2021-12-25,Hakkari,3,1823
359,2021-12-26,Iğdır,16,1472
360,2021-12-27,Ankara,1,1694
361,2021-12-28,İçel (Mersin),4,1679
362,2021-12-29,Karaman,13,1799
363,2021-12-30,Kahramanmaraş,1,1217
